Item Id,Item Code,Department,Item Name,Purchase_Price,Description,Ingredient,Rate 1,Rate 2,Rate 3,Rate 4,Rate 5,Rate 6,MRP,Item Sub Category Id,VAT,Service Tax,Brand,Brand Id,Height,Width,Colour
19,2,,Paneer Roll,0,,,11111,0,0,0,0,0,0,41,99,0,,0,0,0,
20,3,,Egg Roll,0,,,55,0,0,0,0,0,0,41,99,0,,0,0,0,
21,4,,Chicken Roll,0,,,2265,0,0,0,0,0,0,41,99,0,,0,0,0,
22,5,,Egg Chicken Roll,0,,,75,0,0,0,0,0,0,41,99,0,,0,0,0,
23,6,,Mutton Roll,0,,,100,0,0,0,0,0,0,41,99,0,,0,0,0,
24,7,,Egg Mutton Roll,0,,,105,0,0,0,0,0,0,41,99,0,,0,0,0,
25,8,,Chicken Moghlai,0,,,125,0,0,0,0,0,0,40,99,0,,0,0,0,
26,9,,Mutton Moghlai,0,,,145,0,0,0,0,0,0,40,99,0,,0,0,0,
27,10,,VEG CHOW ,0,,,65,0,0,0,0,0,0,39,99,0,,0,0,0,
28,11,,Egg Chow,0,,,75,0,0,0,0,0,0,39,99,0,,0,0,0,
29,12,,Chicken Chow,0,,,90,0,0,0,0,0,0,39,99,0,,0,0,0,
30,13,,Egg Chicken Chow,0,,,95,0,0,0,0,0,0,39,99,0,,0,0,0,
31,14,,Mutton Chow,0,,,110,0,0,0,0,0,0,39,99,0,,0,0,0,
32,15,,Egg Mutton Chow,0,,,115,0,0,0,0,0,0,39,99,0,,0,0,0,
33,16,,Egg Biriyani,0,,,130,0,0,0,0,0,0,42,99,0,,0,0,0,
35,18,,Mutton Biriyani,0,,,180,0,0,0,0,0,0,42,99,0,,0,0,0,
36,19,,Chicken Biriyani,0,,,150,0,0,0,0,0,0,42,99,0,,0,0,0,
