"Item Id","Item Code","Department","Item Name","Purchase_Price","Description","Ingredient","Rate 1","Rate 2","Rate 3","Rate 4","Rate 5","Rate 6","MRP","Item Sub Category Id","VAT","Service Tax","Brand","Brand Id","Height","Width","Colour"
"1","1","SHAWARMA","PAV","65.00","0","0","65.00","70.75","65.00","70.75","65.00","70.75","0.00","1","6","0","","0","0.00","0.00","#ff8800"
"2","2","SHAWARMA","ROTI","75.00","0","0","75.00","82.18","75.00","82.18","75.00","82.18","0.00","1","6","0","","0","0.00","0.00","#ff8800"
"3","3","SHAWARMA","KHABUS","85.00","0","0","85.00","94.56","85.00","94.56","85.00","94.56","0.00","1","6","0","","0","0.00","0.00","#ff8800"
"4","4","SHAWARMA","RUMALI","110.00","0","0","110.00","130.75","110.00","130.75","110.00","130.75","0.00","1","6","0","","0","0.00","0.00","#ff8800"
"5","5","SHAWARMA","OPEN","130.00","0","0","130.00","127.90","130.00","127.90","130.00","127.90","0.00","1","6","0","","0","0.00","0.00","#ff8800"
"6","6","ARABIC SHAWARMA","ARABIC PAV ","85.00","0","0","85.00","94.56","85.00","94.56","85.00","94.56","0.00","2","6","0","","0","0.00","0.00","#ff8800"
"7","7","ARABIC SHAWARMA","ARABIC ROTI ","95.00","0","0","95.00","0.00","95.00","0.00","95.00","0.00","0.00","2","6","0","","0","0.00","0.00","#ff8800"
"8","8","ARABIC SHAWARMA","ARABIC KHABUS","105.00","0","0","105.00","118.37","105.00","118.37","105.00","118.37","0.00","2","6","0","","0","0.00","0.00","#ff8800"
"9","9","ARABIC SHAWARMA","ARABIC RUMALI ","130.00","0","0","130.00","156.47","130.00","156.47","130.00","156.47","0.00","2","6","0","","0","0.00","0.00","#ff8800"
"10","10","ARABIC SHAWARMA","ARABIC OPEN ","150.00","0","0","150.00","175.51","150.00","175.51","150.00","175.51","0.00","2","6","0","","0","0.00","0.00","#ff8800"
"11","11","MEXICAN SHAWARMA","MEXICAN PAV ","75.00","0","0","75.00","82.18","75.00","82.18","75.00","82.18","0.00","3","6","0","","0","0.00","0.00","#ff8800"
"12","12","MEXICAN SHAWARMA","MEXICAN ROTI ","85.00","0","0","85.00","94.56","85.00","94.56","85.00","94.56","0.00","3","6","0","","0","0.00","0.00","#ff8800"
"13","13","MEXICAN SHAWARMA","MEXICAN KHABUS ","95.00","0","0","95.00","105.99","95.00","105.99","95.00","105.99","0.00","3","6","0","","0","0.00","0.00","#ff8800"
"14","14","MEXICAN SHAWARMA","MEXICAN RUMALI ","120.00","0","0","120.00","143.13","120.00","143.13","120.00","143.13","0.00","3","6","0","","0","0.00","0.00","#ff8800"
"15","15","MEXICAN SHAWARMA","MEXICAN OPEN ","140.00","0","0","140.00","162.18","140.00","162.18","140.00","162.18","0.00","3","6","0","","0","0.00","0.00","#ff8800"
"16","16","TIKKA ","CHI TIKKA KHABUS ","110.00","0","0","110.00","122.90","110.00","122.90","110.00","122.90","0.00","4","6","0","","0","0.00","0.00","#ff8800"
"17","17","TIKKA ","CHI TIKKA ROTI ","90.00","0","0","90.00","99.10","90.00","99.10","90.00","99.10","0.00","4","6","0","","0","0.00","0.00","#ff8800"
"18","18","TIKKA ","CHI TIKKA RUMALI ","125.00","0","0","125.00","147.66","125.00","147.66","125.00","147.66","0.00","4","6","0","","0","0.00","0.00","#ff8800"
"19","19","TIKKA ","CHI  TIKKA PAV ","90.00","0","0","90.00","99.10","90.00","99.10","90.00","99.10","0.00","4","6","0","","0","0.00","0.00","#ff8800"
"20","20","Please Select","SHAZANI TIKKA RUMALI ","125.00","0","0","125.00","147.67","125.00","147.67","125.00","147.67","0.00","5","6","0","","0","0.00","0.00","#ff8800"
"21","21","Please Select","SHAZANI TIKKA PAV ","90.00","0","0","90.00","99.10","90.00","99.10","90.00","99.10","0.00","5","6","0","","0","0.00","0.00","#ff8800"
"22","22","SHAZANI TIKKA ","SHAZANI TIKKA ROTI ","90.00","0","0","90.00","99.10","90.00","99.10","90.00","99.10","0.00","5","6","0","","0","0.00","0.00","#ff8800"
"23","23","SHAZANI TIKKA ","SHAZANI TIKKA KHABUS ","110.00","0","0","110.00","122.90","110.00","122.90","110.00","122.90","0.00","5","6","0","","0","0.00","0.00","#ff8800"
"24","24","CHAKORI TIKKA ","CHAKORI TIKKA ROTI ","90.00","0","0","90.00","99.10","90.00","99.10","90.00","99.10","0.00","6","6","0","","0","0.00","0.00","#ff8800"
"25","25","CHAKORI TIKKA ","CHAKORI TIKKA KHABUS ","110.00","0","0","110.00","122.90","110.00","122.90","110.00","122.90","0.00","6","6","0","","0","0.00","0.00","#ff8800"
"26","26","CHAKORI TIKKA ","CHAKORI TIKKA PAV ","90.00","0","0","90.00","99.10","90.00","99.10","90.00","99.10","0.00","6","6","0","","0","0.00","0.00","#ff8800"
"27","27","CHAKORI TIKKA ","CHAKORI TIKKA RUMALI ","125.00","0","0","125.00","147.67","125.00","147.67","125.00","147.67","0.00","6","6","0","","0","0.00","0.00","#ff8800"
"28","28","TANDOOR","TANDOORI QUARTER","95.00","0","0","95.00","119.05","95.00","119.05","95.00","119.05","0.00","7","6","0","","0","0.00","0.00","#ff8800"
"29","29","TANDOOR","TANDOORI HALF","190.00","0","0","190.00","237.14","190.00","237.14","190.00","237.14","0.00","7","6","0","","0","0.00","0.00","#ff8800"
"30","30","TANDOOR","TANDOORI FULL","380.00","0","1","380.00","465.71","380.00","465.71","380.00","465.71","0.00","7","6","0","","0","0.00","0.00","#ff8800"
"31","31","TIKKA ROLL","TIKKA ROLL PAV","80.00","0","0","80.00","86.71","80.00","86.71","80.00","86.71","0.00","8","6","0","","0","0.00","0.00","#ff8800"
"32","32","TIKKA ROLL","TIKKA ROLL ROTI","80.00","0","0","80.00","0.00","80.00","0.00","80.00","0.00","0.00","8","6","0","","0","0.00","0.00","#ff8800"
"33","33","TIKKA ROLL","TIKKA ROLL RUMALI","115.00","0","0","115.00","135.29","115.00","135.29","115.00","135.29","0.00","8","6","0","","0","0.00","0.00","#ff8800"
"34","34","TIKKA ROLL","MALAI TIKKA RUMALI","140.00","0","0","140.00","213.15","140.00","213.15","140.00","213.15","0.00","8","6","0","","0","0.00","0.00","#ff8800"
"35","35","SHAZANI TIKKA ROLL","SHAZANI TIKKA ROLL PAV","80.00","0","0","80.00","86.71","80.00","86.71","80.00","86.71","0.00","9","6","0","","0","0.00","0.00","#ff8800"
"36","36","SHAZANI TIKKA ROLL","SHAZANI TIKKA ROLL ROTI","80.00","0","0","80.00","86.71","80.00","86.71","80.00","86.71","0.00","9","6","0","","0","0.00","0.00","#ff8800"
"37","37","SHAZANI TIKKA ROLL","SHAZANI TIKKA ROLL RUMALI","115.00","0","0","115.00","135.29","115.00","135.29","115.00","135.29","0.00","9","6","0","","0","0.00","0.00","#ff8800"
"38","38","CHAKORI TIKKA ROLL","CHAKORI TIKKA ROLL PAV","80.00","0","0","80.00","86.71","80.00","86.71","80.00","86.71","0.00","10","6","0","","0","0.00","0.00","#ff8800"
"39","39","CHAKORI TIKKA ROLL","CHAKORI TIKKA ROLL ROTI","80.00","0","0","80.00","86.71","80.00","86.71","80.00","86.71","0.00","10","6","0","","0","0.00","0.00","#ff8800"
"40","40","CHAKORI TIKKA ROLL","CHAKORI TIKKA ROLL RUMALI","115.00","0","0","115.00","135.29","115.00","135.29","115.00","135.29","0.00","10","6","0","","0","0.00","0.00","#ff8800"
"41","41","PLATTER","TIKKA PLATTER","180.00","0","0","180.00","202.90","180.00","202.90","180.00","202.90","0.00","11","6","0","","0","0.00","0.00","#ff8800"
"42","42","PLATTER","SHAZANI TIKKA PLATTER","180.00","0","0","180.00","202.90","180.00","202.90","180.00","202.90","0.00","11","6","0","","0","0.00","0.00","#ff8800"
"43","43","PLATTER","CHAKORI TIKKA PLATTER","180.00","0","0","180.00","202.90","180.00","202.90","180.00","202.90","0.00","11","6","0","","0","0.00","0.00","#ff8800"
"44","44","PLATTER","MALAI TIKKA PLATTER","205.00","0","0","205.00","231.25","205.00","231.25","205.00","231.25","0.00","11","6","0","","0","0.00","0.00","#ff8800"
"45","45","PLATTER","MIX PLATTER","220.00","0","0","220.00","208.62","220.00","208.62","220.00","208.62","0.00","11","6","0","","0","0.00","0.00","#ff8800"
"46","46","EXTRA","MAYONNAISE DIP","10.00","0","0","10.00","11.43","10.00","11.43","10.00","11.43","0.00","13","99","0","","0","0.00","0.00","#ff8800"
"47","47","EXTRA","GARLIC SAUCES DIP","20.00","0","0","20.00","14.29","20.00","14.29","20.00","14.29","0.00","13","6","0","","0","0.00","0.00","#ff8800"
"48","48","EXTRA","MEXICAN SAUCES DIP","20.00","0","0","20.00","14.29","20.00","14.29","20.00","14.29","0.00","13","6","0","","0","0.00","0.00","#ff8800"
"49","49","EXTRA","EXTRA CHICKEN","35.00","0","0","35.00","33.33","35.00","33.33","35.00","33.33","0.00","13","6","0","","0","0.00","0.00","#ff8800"
"50","50","EXTRA","EXTRA KHUBOOS","20.00","0","0","20.00","12.38","20.00","12.38","20.00","12.38","0.00","13","6","0","","0","0.00","0.00","#ff8800"
"51","51","EXTRA","EXTRA RUMALI","30.00","0","0","30.00","20.95","30.00","20.95","30.00","20.95","0.00","13","6","0","","0","0.00","0.00","#ff8800"
"52","52","EXTRA","EXTRA PAV","6.00","0","0","6.00","8.57","6.00","8.57","6.00","8.57","0.00","13","6","0","","0","0.00","0.00","#ff8800"
"53","53","EXTRA","NO VEG","20.00","0","0","20.00","19.05","20.00","19.05","20.00","19.05","0.00","13","6","0","","0","0.00","0.00","#ff8800"
"54","54","EXTRA","EXTRA SPICY","10.00","0","0","10.00","9.52","10.00","9.52","10.00","9.52","0.00","13","6","0","","0","0.00","0.00","#ff8800"
"55","55","EXTRA","EXTRA CHEESE","26.00","0","0","26.00","20.95","26.00","20.95","26.00","20.95","0.00","13","6","0","","0","0.00","0.00","#ff8800"
"56","56","BEVERAGES","COLD DRINK 250ML","20.00","0","0","20.00","23.81","20.00","23.81","20.00","23.81","0.00","14","99","0","","0","0.00","0.00","#ff8800"
"57","57","BEVERAGES","COLD DRINK 500ML","40.00","0","0","40.00","47.62","40.00","47.62","40.00","47.62","0.00","14","99","0","","0","0.00","0.00","#ff8800"
"58","58","BEVERAGES","BOTTLED WATER 500ML","10.00","0","0","10.00","12.38","10.00","12.38","10.00","12.38","0.00","14","99","0","","0","0.00","0.00","#ff8800"
"59","59","BEVERAGES","BOTTLED WATER 1LTR","20.00","0","0","20.00","23.81","20.00","23.81","20.00","23.81","0.00","14","99","0","","0","0.00","0.00","#ff8800"
"60","60","BEVERAGES","BIG COLA","10.00","0","0","10.00","10.00","10.00","10.00","10.00","10.00","0.00","14","99","0","","0","0.00","0.00","#ff8800"
"61","61","Please Select","LESS SPICY","0.00","","","0.00","0.00","0.00","0.00","0.00","0.00","0.00","16","99","0","","0","0.00","0.00",""
"62","62","Please Select","NO POTATO","0.00","","","0.00","0.00","0.00","0.00","0.00","0.00","0.00","16","99","0","","0","0.00","0.00",""
"63","63","Please Select","NO TOMATO","0.00","","","0.00","0.00","0.00","0.00","0.00","0.00","0.00","16","99","0","","0","0.00","0.00",""
"64","64","Please Select","NO CABBAGE","0.00","","","0.00","0.00","0.00","0.00","0.00","0.00","0.00","16","99","0","","0","0.00","0.00",""
"65","65","Please Select","NON SPICY","0.00","","","0.00","0.00","0.00","0.00","0.00","0.00","0.00","16","99","0","","0","0.00","0.00",""
"66","66","Please Select","MORE MAYO","0.00","","","0.00","0.00","0.00","0.00","0.00","0.00","0.00","16","99","0","","0","0.00","0.00",""
"67","67","Please Select","CHICKEN MAYO","0.00","","","0.00","0.00","0.00","0.00","0.00","0.00","0.00","16","99","0","","0","0.00","0.00",""
"68","68","Please Select","NO BEET","0.00","","","0.00","0.00","0.00","0.00","0.00","0.00","0.00","16","99","0","","0","0.00","0.00",""
"69","69","Please Select","LESS MAYO","0.00","","","0.00","0.00","0.00","0.00","0.00","0.00","0.00","16","99","0","","0","0.00","0.00",""
"70","70","Please Select","NO CHICKEN","0.00","","","0.00","0.00","0.00","0.00","0.00","0.00","0.00","16","99","0","","0","0.00","0.00",""
"71","71","Please Select","RED HOT","0.00","","","0.00","0.00","0.00","0.00","0.00","0.00","0.00","16","99","0","","0","0.00","0.00",""
"72","72","Please Select","NO MAYO","0.00","","","0.00","0.00","0.00","0.00","0.00","0.00","0.00","16","99","0","","0","0.00","0.00",""
"73","73","Please Select","NO ONION","0.00","","","0.00","0.00","0.00","0.00","0.00","0.00","0.00","16","99","0","","0","0.00","0.00",""
"74","74","Please Select","LESS VEG","0.00","","","0.00","0.00","0.00","0.00","0.00","0.00","0.00","16","99","0","","0","0.00","0.00",""
"75","75","EXTRA","250 GRM MAYO","0.00","","","100.00","100.00","100.00","100.00","100.00","100.00","0.00","13","99","0","","0","0.00","0.00",""
"76","76","EXTRA","Free Mayo","0.00","","","0.00","0.00","0.00","0.00","0.00","0.00","0.00","13","99","0","","0","0.00","0.00",""
